999
dxfrw 0.6.3
  0
SECTION
  2
HEADER
  9
$ACADVER
  1
AC1021
  9
$DWGCODEPAGE
  3
ANSI_1252
  9
$INSBASE
 10
0
 20
0
 30
0
  9
$EXTMIN
 10
-17.61502829818291
 20
-14.43531886886193
 30
0
  9
$EXTMAX
 10
36.32364899137823
 20
29.57384389603473
 30
0
  9
$LIMMIN
 10
0
 20
0
  9
$LIMMAX
 10
420
 20
297
  9
$ORTHOMODE
 70
    0
  9
$REGENMODE
 70
    1
  9
$FILLMODE
 70
    1
  9
$QTEXTMODE
 70
    0
  9
$MIRRTEXT
 70
    0
  9
$LTSCALE
 40
1
  9
$ATTMODE
 70
    0
  9
$TEXTSIZE
 40
2.5
  9
$TRACEWID
 40
15.68
  9
$TEXTSTYLE
  7
STANDARD
  9
$CLAYER
  8
HolderProfile
  9
$CELTYPE
  6
BYLAYER
  9
$CECOLOR
 62
  256
  9
$CELTSCALE
 40
1
  9
$DISPSILH
 70
    0
  9
$DIMSCALE
 40
1
  9
$DIMASZ
 40
2.5
  9
$DIMEXO
 40
0.625
  9
$DIMDLI
 40
3.75
  9
$DIMRND
 40
0
  9
$DIMDLE
 40
0
  9
$DIMEXE
 40
1.25
  9
$DIMTP
 40
0
  9
$DIMTM
 40
0
  9
$DIMTXT
 40
2.5
  9
$DIMCEN
 40
2.5
  9
$DIMTSZ
 40
0
  9
$DIMTOL
 70
    0
  9
$DIMLIM
 70
    0
  9
$DIMTIH
 70
    0
  9
$DIMTOH
 70
    0
  9
$DIMSE1
 70
    0
  9
$DIMSE2
 70
    0
  9
$DIMTAD
 70
    1
  9
$DIMZIN
 70
    8
  9
$DIMBLK
  1

  9
$DIMASO
 70
    1
  9
$DIMSHO
 70
    1
  9
$DIMPOST
  1

  9
$DIMAPOST
  1

  9
$DIMALT
 70
    0
  9
$DIMALTD
 70
    3
  9
$DIMALTF
 40
0.03937
  9
$DIMLFAC
 40
1
  9
$DIMTOFL
 70
    1
  9
$DIMTVP
 40
0
  9
$DIMTIX
 70
    0
  9
$DIMSOXD
 70
    0
  9
$DIMSAH
 70
    0
  9
$DIMBLK1
  1

  9
$DIMBLK2
  1

  9
$DIMSTYLE
  2
STANDARD
  9
$DIMCLRD
 70
    0
  9
$DIMCLRE
 70
    0
  9
$DIMCLRT
 70
    0
  9
$DIMTFAC
 40
1
  9
$DIMGAP
 40
0.625
  9
$DIMJUST
 70
    0
  9
$DIMSD1
 70
    0
  9
$DIMSD2
 70
    0
  9
$DIMTOLJ
 70
    0
  9
$DIMTZIN
 70
    8
  9
$DIMALTZ
 70
    0
  9
$DIMALTTZ
 70
    0
  9
$DIMUPT
 70
    0
  9
$DIMDEC
 70
    2
  9
$DIMTDEC
 70
    2
  9
$DIMALTU
 70
    2
  9
$DIMALTTD
 70
    3
  9
$DIMTXSTY
  7
STANDARD
  9
$DIMAUNIT
 70
    0
  9
$DIMADEC
 70
    0
  9
$DIMALTRND
 40
0
  9
$DIMAZIN
 70
    0
  9
$DIMDSEP
 70
   44
  9
$DIMATFIT
 70
    3
  9
$DIMFRAC
 70
    0
  9
$DIMLDRBLK
  1
STANDARD
  9
$DIMLUNIT
 70
    2
  9
$DIMLWD
 70
   -2
  9
$DIMLWE
 70
   -2
  9
$DIMTMOVE
 70
    0
  9
$DIMFXL
 40
1
  9
$DIMFXLON
 70
    0
  9
$DIMJOGANG
 40
0.7854
  9
$DIMTFILL
 70
    0
  9
$DIMTFILLCLR
 70
    0
  9
$DIMARCSYM
 70
    0
  9
$DIMLTYPE
  6

  9
$DIMLTEX1
  6

  9
$DIMLTEX2
  6

  9
$LUNITS
 70
    2
  9
$LUPREC
 70
    4
  9
$SKETCHINC
 40
1
  9
$FILLETRAD
 40
0
  9
$AUNITS
 70
    0
  9
$AUPREC
 70
    2
  9
$MENU
  1
.
  9
$ELEVATION
 40
0
  9
$PELEVATION
 40
0
  9
$THICKNESS
 40
0
  9
$LIMCHECK
 70
    0
  9
$CHAMFERA
 40
0
  9
$CHAMFERB
 40
0
  9
$CHAMFERC
 40
0
  9
$CHAMFERD
 40
0
  9
$SKPOLY
 70
    0
  9
$USRTIMER
 70
    1
  9
$ANGBASE
 50
0
  9
$ANGDIR
 70
    0
  9
$PDMODE
 70
   34
  9
$PDSIZE
 40
0
  9
$PLINEWID
 40
0
  9
$SPLFRAME
 70
    0
  9
$SPLINETYPE
 70
    2
  9
$SPLINESEGS
 70
    8
  9
$HANDSEED
  5
20000
  9
$SURFTAB1
 70
    6
  9
$SURFTAB2
 70
    6
  9
$SURFTYPE
 70
    6
  9
$SURFU
 70
    6
  9
$SURFV
 70
    6
  9
$UCSBASE
  2

  9
$UCSNAME
  2

  9
$UCSORG
 10
0
 20
0
 30
0
  9
$UCSXDIR
 10
1
 20
0
 30
0
  9
$UCSYDIR
 10
0
 20
1
 30
0
  9
$UCSORTHOREF
  2

  9
$UCSORTHOVIEW
 70
    0
  9
$UCSORGTOP
 10
0
 20
0
 30
0
  9
$UCSORGBOTTOM
 10
0
 20
0
 30
0
  9
$UCSORGLEFT
 10
0
 20
0
 30
0
  9
$UCSORGRIGHT
 10
0
 20
0
 30
0
  9
$UCSORGFRONT
 10
0
 20
0
 30
0
  9
$UCSORGBACK
 10
0
 20
0
 30
0
  9
$PUCSBASE
  2

  9
$PUCSNAME
  2

  9
$PUCSORG
 10
0
 20
0
 30
0
  9
$PUCSXDIR
 10
1
 20
0
 30
0
  9
$PUCSYDIR
 10
0
 20
1
 30
0
  9
$PUCSORTHOREF
  2

  9
$PUCSORTHOVIEW
 70
    0
  9
$PUCSORGTOP
 10
0
 20
0
 30
0
  9
$PUCSORGBOTTOM
 10
0
 20
0
 30
0
  9
$PUCSORGLEFT
 10
0
 20
0
 30
0
  9
$PUCSORGRIGHT
 10
0
 20
0
 30
0
  9
$PUCSORGFRONT
 10
0
 20
0
 30
0
  9
$PUCSORGBACK
 10
0
 20
0
 30
0
  9
$USERI1
 70
    0
  9
$USERI2
 70
    0
  9
$USERI3
 70
    0
  9
$USERI4
 70
    0
  9
$USERI5
 70
    0
  9
$USERR1
 40
0
  9
$USERR2
 40
0
  9
$USERR3
 40
0
  9
$USERR4
 40
0
  9
$USERR5
 40
0
  9
$WORLDVIEW
 70
    1
  9
$SHADEDGE
 70
    3
  9
$SHADEDIF
 70
   70
  9
$TILEMODE
 70
    1
  9
$MAXACTVP
 70
   64
  9
$PINSBASE
 10
144.5853683992395
 20
111.9632079511188
 30
0
  9
$PLIMCHECK
 70
    0
  9
$PEXTMIN
 10
0
 20
0
 30
0
  9
$PEXTMAX
 10
0
 20
0
 30
0
  9
$GRIDMODE
 70
    1
  9
$SNAPSTYLE
 70
    0
  9
$PLIMMIN
 10
0
 20
0
  9
$PLIMMAX
 10
297
 20
210
  9
$UNITMODE
 70
    0
  9
$VISRETAIN
 70
    1
  9
$PLINEGEN
 70
    0
  9
$PSLTSCALE
 70
    1
  9
$TREEDEPTH
 70
 3020
  9
$CMLSTYLE
  2
Standard
  9
$CMLJUST
 70
    0
  9
$CMLSCALE
 40
20
  9
$PROXYGRAPHICS
 70
    1
  9
$MEASUREMENT
 70
    1
  9
$CELWEIGHT
370
   -1
  9
$ENDCAPS
280
    0
  9
$JOINSTYLE
280
    0
  9
$LWDISPLAY
290
    0
  9
$INSUNITS
 70
    4
  9
$HYPERLINKBASE
  1

  9
$STYLESHEET
  1

  9
$XEDIT
290
    1
  9
$CEPSNTYPE
380
    0
  9
$PSTYLEMODE
290
    1
  9
$EXTNAMES
290
    1
  9
$PSVPSCALE
 40
1
  9
$OLESTARTUP
290
    0
  9
$SORTENTS
280
  127
  9
$INDEXCTL
280
    0
  9
$HIDETEXT
280
    1
  9
$XCLIPFRAME
290
    0
  9
$HALOGAP
280
    0
  9
$OBSCOLOR
 70
  257
  9
$OBSLTYPE
280
    0
  9
$INTERSECTIONDISPLAY
280
    0
  9
$INTERSECTIONCOLOR
 70
  257
  9
$DIMASSOC
280
    1
  9
$PROJECTNAME
  1

  9
$CAMERADISPLAY
290
    0
  9
$LENSLENGTH
 40
50
  9
$CAMERAHEIGHT
 40
0
  9
$STEPSPERSEC
 40
2
  9
$STEPSIZE
 40
50
  9
$3DDWFPREC
 40
2
  9
$PSOLWIDTH
 40
5
  9
$PSOLHEIGHT
 40
80
  9
$LOFTANG1
 40
1.570796326794897
  9
$LOFTANG2
 40
1.570796326794897
  9
$LOFTMAG1
 40
0
  9
$LOFTMAG2
 40
0
  9
$LOFTPARAM
 70
    7
  9
$LOFTNORMALS
280
    1
  9
$LATITUDE
 40
1
  9
$LONGITUDE
 40
1
  9
$NORTHDIRECTION
 40
0
  9
$TIMEZONE
 70
-8000
  9
$LIGHTGLYPHDISPLAY
280
    1
  9
$TILEMODELIGHTSYNCH
280
    1
  9
$SOLIDHIST
280
    1
  9
$SHOWHIST
280
    1
  9
$DWFFRAME
280
    2
  9
$DGNFRAME
280
    0
  9
$REALWORLDSCALE
290
    1
  9
$INTERFERECOLOR
 62
    1
  9
$CSHADOW
280
    0
  9
$SHADOWPLANELOCATION
 40
0
  0
ENDSEC
  0
SECTION
  2
CLASSES
  0
ENDSEC
  0
SECTION
  2
TABLES
  0
TABLE
  2
VPORT
  5
8
330
0
100
AcDbSymbolTable
 70
    1
  0
VPORT
  5
31
330
2
100
AcDbSymbolTableRecord
100
AcDbViewportTableRecord
  2
*ACTIVE
 70
    0
 10
0
 20
0
 11
1
 21
1
 12
14.80096725800104
 22
15.5369269559127
 13
0
 23
0
 14
10
 24
10
 15
10
 25
10
 16
0
 26
0
 36
1
 17
0
 27
0
 37
0
 40
34.83542570115162
 41
1.727699530516432
 42
50
 43
0
 44
0
 50
0
 51
0
 71
    0
 72
  100
 73
    1
 74
    3
 75
    0
 76
    1
 77
    0
 78
    0
281
    0
 65
    1
110
0
120
0
130
0
111
1
121
0
131
0
112
0
122
1
132
0
 79
    0
146
0
348
10020
 60
    7
 61
    5
292
1
282
    1
141
0
142
0
 63
  250
421
3358443
  0
ENDTAB
  0
TABLE
  2
LTYPE
  5
5
330
0
100
AcDbSymbolTable
 70
    4
  0
LTYPE
  5
14
330
5
100
AcDbSymbolTableRecord
100
AcDbLinetypeTableRecord
  2
ByBlock
 70
    0
  3

 72
   65
 73
    0
 40
0
  0
LTYPE
  5
15
330
5
100
AcDbSymbolTableRecord
100
AcDbLinetypeTableRecord
  2
ByLayer
 70
    0
  3

 72
   65
 73
    0
 40
0
  0
LTYPE
  5
16
330
5
100
AcDbSymbolTableRecord
100
AcDbLinetypeTableRecord
  2
Continuous
 70
    0
  3
Solid line
 72
   65
 73
    0
 40
0
  0
LTYPE
  5
32
330
5
100
AcDbSymbolTableRecord
100
AcDbLinetypeTableRecord
  2
DOT
 70
    0
  3
Dot . . . . . . . . . . . . . . . . . . . . . .
 72
   65
 73
    2
 40
6.35
 49
0
 74
    0
 49
-6.35
 74
    0
  0
LTYPE
  5
33
330
5
100
AcDbSymbolTableRecord
100
AcDbLinetypeTableRecord
  2
DOTTINY
 70
    0
  3
Dot (.15x) .....................................
 72
   65
 73
    2
 40
0.9525
 49
0
 74
    0
 49
-0.9525
 74
    0
  0
LTYPE
  5
34
330
5
100
AcDbSymbolTableRecord
100
AcDbLinetypeTableRecord
  2
DOT2
 70
    0
  3
Dot (.5x) .....................................
 72
   65
 73
    2
 40
3.175
 49
0
 74
    0
 49
-3.175
 74
    0
  0
LTYPE
  5
35
330
5
100
AcDbSymbolTableRecord
100
AcDbLinetypeTableRecord
  2
DOTX2
 70
    0
  3
Dot (2x) .  .  .  .  .  .  .  .  .  .  .  .  .
 72
   65
 73
    2
 40
12.7
 49
0
 74
    0
 49
-12.7
 74
    0
  0
LTYPE
  5
36
330
5
100
AcDbSymbolTableRecord
100
AcDbLinetypeTableRecord
  2
DASHED
 70
    0
  3
Dashed _ _ _ _ _ _ _ _ _ _ _ _ _ _ _ _ _
 72
   65
 73
    2
 40
19.05
 49
12.7
 74
    0
 49
-6.35
 74
    0
  0
LTYPE
  5
37
330
5
100
AcDbSymbolTableRecord
100
AcDbLinetypeTableRecord
  2
DASHEDTINY
 70
    0
  3
Dashed (.15x) _ _ _ _ _ _ _ _ _ _ _ _ _ _ _ _ _
 72
   65
 73
    2
 40
2.8575
 49
1.905
 74
    0
 49
-0.9525
 74
    0
  0
LTYPE
  5
38
330
5
100
AcDbSymbolTableRecord
100
AcDbLinetypeTableRecord
  2
DASHED2
 70
    0
  3
Dashed (.5x) _ _ _ _ _ _ _ _ _ _ _ _ _ _ _ _ _
 72
   65
 73
    2
 40
9.524999999999999
 49
6.35
 74
    0
 49
-3.175
 74
    0
  0
LTYPE
  5
39
330
5
100
AcDbSymbolTableRecord
100
AcDbLinetypeTableRecord
  2
DASHEDX2
 70
    0
  3
Dashed (2x) ____  ____  ____  ____  ____  ___
 72
   65
 73
    2
 40
38.09999999999999
 49
25.4
 74
    0
 49
-12.7
 74
    0
  0
LTYPE
  5
3A
330
5
100
AcDbSymbolTableRecord
100
AcDbLinetypeTableRecord
  2
DASHDOT
 70
    0
  3
Dash dot __ . __ . __ . __ . __ . __ . __ . __
 72
   65
 73
    4
 40
25.4
 49
12.7
 74
    0
 49
-6.35
 74
    0
 49
0
 74
    0
 49
-6.35
 74
    0
  0
LTYPE
  5
3B
330
5
100
AcDbSymbolTableRecord
100
AcDbLinetypeTableRecord
  2
DASHDOTTINY
 70
    0
  3
Dash dot (.15x) _._._._._._._._._._._._._._._.
 72
   65
 73
    4
 40
3.81
 49
1.905
 74
    0
 49
-0.9525
 74
    0
 49
0
 74
    0
 49
-0.9525
 74
    0
  0
LTYPE
  5
3C
330
5
100
AcDbSymbolTableRecord
100
AcDbLinetypeTableRecord
  2
DASHDOT2
 70
    0
  3
Dash dot (.5x) _._._._._._._._._._._._._._._.
 72
   65
 73
    4
 40
12.7
 49
6.35
 74
    0
 49
-3.175
 74
    0
 49
0
 74
    0
 49
-3.175
 74
    0
  0
LTYPE
  5
3D
330
5
100
AcDbSymbolTableRecord
100
AcDbLinetypeTableRecord
  2
DASHDOTX2
 70
    0
  3
Dash dot (2x) ____  .  ____  .  ____  .  ___
 72
   65
 73
    4
 40
50.8
 49
25.4
 74
    0
 49
-12.7
 74
    0
 49
0
 74
    0
 49
-12.7
 74
    0
  0
LTYPE
  5
3E
330
5
100
AcDbSymbolTableRecord
100
AcDbLinetypeTableRecord
  2
DIVIDE
 70
    0
  3
Divide ____ . . ____ . . ____ . . ____ . . ____
 72
   65
 73
    6
 40
31.75
 49
12.7
 74
    0
 49
-6.35
 74
    0
 49
0
 74
    0
 49
-6.35
 74
    0
 49
0
 74
    0
 49
-6.35
 74
    0
  0
LTYPE
  5
3F
330
5
100
AcDbSymbolTableRecord
100
AcDbLinetypeTableRecord
  2
DIVIDETINY
 70
    0
  3
Divide (.15x) __..__..__..__..__..__..__..__.._
 72
   65
 73
    6
 40
4.7625
 49
1.905
 74
    0
 49
-0.9525
 74
    0
 49
0
 74
    0
 49
-0.9525
 74
    0
 49
0
 74
    0
 49
-0.9525
 74
    0
  0
LTYPE
  5
40
330
5
100
AcDbSymbolTableRecord
100
AcDbLinetypeTableRecord
  2
DIVIDE2
 70
    0
  3
Divide (.5x) __..__..__..__..__..__..__..__.._
 72
   65
 73
    6
 40
15.875
 49
6.35
 74
    0
 49
-3.175
 74
    0
 49
0
 74
    0
 49
-3.175
 74
    0
 49
0
 74
    0
 49
-3.175
 74
    0
  0
LTYPE
  5
41
330
5
100
AcDbSymbolTableRecord
100
AcDbLinetypeTableRecord
  2
DIVIDEX2
 70
    0
  3
Divide (2x) ________  .  .  ________  .  .  _
 72
   65
 73
    6
 40
63.5
 49
25.4
 74
    0
 49
-12.7
 74
    0
 49
0
 74
    0
 49
-12.7
 74
    0
 49
0
 74
    0
 49
-12.7
 74
    0
  0
LTYPE
  5
42
330
5
100
AcDbSymbolTableRecord
100
AcDbLinetypeTableRecord
  2
BORDER
 70
    0
  3
Border __ __ . __ __ . __ __ . __ __ . __ __ .
 72
   65
 73
    6
 40
44.45
 49
12.7
 74
    0
 49
-6.35
 74
    0
 49
12.7
 74
    0
 49
-6.35
 74
    0
 49
0
 74
    0
 49
-6.35
 74
    0
  0
LTYPE
  5
43
330
5
100
AcDbSymbolTableRecord
100
AcDbLinetypeTableRecord
  2
BORDERTINY
 70
    0
  3
Border (.15x) __.__.__.__.__.__.__.__.__.__.__.
 72
   65
 73
    6
 40
6.6675
 49
1.905
 74
    0
 49
-0.9525
 74
    0
 49
1.905
 74
    0
 49
-0.9525
 74
    0
 49
0
 74
    0
 49
-0.9525
 74
    0
  0
LTYPE
  5
44
330
5
100
AcDbSymbolTableRecord
100
AcDbLinetypeTableRecord
  2
BORDER2
 70
    0
  3
Border (.5x) __.__.__.__.__.__.__.__.__.__.__.
 72
   65
 73
    6
 40
22.225
 49
6.35
 74
    0
 49
-3.175
 74
    0
 49
6.35
 74
    0
 49
-3.175
 74
    0
 49
0
 74
    0
 49
-3.175
 74
    0
  0
LTYPE
  5
45
330
5
100
AcDbSymbolTableRecord
100
AcDbLinetypeTableRecord
  2
BORDERX2
 70
    0
  3
Border (2x) ____  ____  .  ____  ____  .  ___
 72
   65
 73
    6
 40
88.89999999999999
 49
25.4
 74
    0
 49
-12.7
 74
    0
 49
25.4
 74
    0
 49
-12.7
 74
    0
 49
0
 74
    0
 49
-12.7
 74
    0
  0
LTYPE
  5
46
330
5
100
AcDbSymbolTableRecord
100
AcDbLinetypeTableRecord
  2
CENTER
 70
    0
  3
Center ____ _ ____ _ ____ _ ____ _ ____ _ ____
 72
   65
 73
    4
 40
50.8
 49
31.75
 74
    0
 49
-6.35
 74
    0
 49
6.35
 74
    0
 49
-6.35
 74
    0
  0
LTYPE
  5
47
330
5
100
AcDbSymbolTableRecord
100
AcDbLinetypeTableRecord
  2
CENTERTINY
 70
    0
  3
Center (.15x) ___ _ ___ _ ___ _ ___ _ ___ _ ___
 72
   65
 73
    4
 40
7.619999999999999
 49
4.7625
 74
    0
 49
-0.9525
 74
    0
 49
0.9525
 74
    0
 49
-0.9525
 74
    0
  0
LTYPE
  5
48
330
5
100
AcDbSymbolTableRecord
100
AcDbLinetypeTableRecord
  2
CENTER2
 70
    0
  3
Center (.5x) ___ _ ___ _ ___ _ ___ _ ___ _ ___
 72
   65
 73
    4
 40
28.575
 49
19.05
 74
    0
 49
-3.175
 74
    0
 49
3.175
 74
    0
 49
-3.175
 74
    0
  0
LTYPE
  5
49
330
5
100
AcDbSymbolTableRecord
100
AcDbLinetypeTableRecord
  2
CENTERX2
 70
    0
  3
Center (2x) ________  __  ________  __  _____
 72
   65
 73
    4
 40
101.6
 49
63.5
 74
    0
 49
-12.7
 74
    0
 49
12.7
 74
    0
 49
-12.7
 74
    0
  0
ENDTAB
  0
TABLE
  2
LAYER
  5
2
330
0
100
AcDbSymbolTable
 70
    1
  0
LAYER
  5
10
330
2
100
AcDbSymbolTableRecord
100
AcDbLayerTableRecord
  2
0
 70
    1
 62
    7
  6
CONTINUOUS
370
    0
390
F
  0
LAYER
  5
4A
330
2
100
AcDbSymbolTableRecord
100
AcDbLayerTableRecord
  2
AngleBlock
 70
    0
 62
    6
  6
CONTINUOUS
370
    0
390
F
  0
LAYER
  5
4B
330
2
100
AcDbSymbolTableRecord
100
AcDbLayerTableRecord
  2
Car Profile
 70
    1
 62
    5
  6
CONTINUOUS
370
    0
390
F
  0
LAYER
  5
4C
330
2
100
AcDbSymbolTableRecord
100
AcDbLayerTableRecord
  2
Guides
 70
    1
 62
    2
  6
CONTINUOUS
370
    0
390
F
1001
LibreCad
1070
    1
  0
LAYER
  5
4D
330
2
100
AcDbSymbolTableRecord
100
AcDbLayerTableRecord
  2
HolderProfile
 70
    0
 62
    4
  6
CONTINUOUS
370
    0
390
F
  0
LAYER
  5
4E
330
2
100
AcDbSymbolTableRecord
100
AcDbLayerTableRecord
  2
HoleCutter
 70
    1
 62
    6
  6
CONTINUOUS
370
    0
390
F
  0
LAYER
  5
4F
330
2
100
AcDbSymbolTableRecord
100
AcDbLayerTableRecord
  2
Screw
 70
    0
 62
    8
  6
CONTINUOUS
370
    0
390
F
  0
LAYER
  5
50
330
2
100
AcDbSymbolTableRecord
100
AcDbLayerTableRecord
  2
ScrewGuides
 70
    1
 62
    6
  6
CONTINUOUS
370
    0
390
F
1001
LibreCad
1070
    1
  0
LAYER
  5
51
330
2
100
AcDbSymbolTableRecord
100
AcDbLayerTableRecord
  2
mesures
 70
    1
 62
    1
  6
CONTINUOUS
370
    0
390
F
  0
ENDTAB
  0
TABLE
  2
STYLE
  5
3
330
0
100
AcDbSymbolTable
 70
    3
  0
STYLE
  5
52
330
2
100
AcDbSymbolTableRecord
100
AcDbTextStyleTableRecord
  2
Standard
 70
    0
 40
0
 41
1
 50
0
 71
    0
 42
1
  3
txt
  4

  0
ENDTAB
  0
TABLE
  2
VIEW
  5
6
330
0
100
AcDbSymbolTable
 70
    0
  0
ENDTAB
  0
TABLE
  2
UCS
  5
7
330
0
100
AcDbSymbolTable
 70
    0
  0
ENDTAB
  0
TABLE
  2
APPID
  5
9
330
0
100
AcDbSymbolTable
 70
    1
  0
APPID
  5
12
330
9
100
AcDbSymbolTableRecord
100
AcDbRegAppTableRecord
  2
ACAD
 70
    0
  0
APPID
  5
53
330
9
100
AcDbSymbolTableRecord
100
AcDbRegAppTableRecord
  2
LibreCad
 70
    0
  0
ENDTAB
  0
TABLE
  2
DIMSTYLE
  5
A
330
0
100
AcDbSymbolTable
 70
    1
100
AcDbDimStyleTable
 71
    1
  0
DIMSTYLE
105
54
330
A
100
AcDbSymbolTableRecord
100
AcDbDimStyleTableRecord
  2
Standard
 70
    0
 40
1
 41
2.5
 42
0.625
 43
0.38
 44
1.25
 45
0
 46
0
 47
0
 48
0
 49
1
140
2.5
141
0.09
142
0
143
25.4
144
1
145
0
146
1
147
0.625
148
0
 71
    0
 72
    0
 73
    0
 74
    1
 75
    0
 76
    0
 77
    0
 78
    8
 79
    0
170
    0
171
    2
172
    0
173
    0
174
    0
175
    0
176
    0
177
    0
178
    0
179
    0
271
    2
272
    4
273
    2
274
    2
275
    0
276
    0
277
    2
278
   44
279
    0
280
    0
281
    0
282
    0
283
    1
284
    0
285
    0
286
    0
288
    0
289
    3
340
STANDARD
341

371
   -2
372
   -2
  0
ENDTAB
  0
TABLE
  2
BLOCK_RECORD
  5
1
330
0
100
AcDbSymbolTable
 70
    2
  0
BLOCK_RECORD
  5
1F
330
1
100
AcDbSymbolTableRecord
100
AcDbBlockTableRecord
  2
*Model_Space
 70
    0
280
    1
281
    0
  0
BLOCK_RECORD
  5
1E
330
1
100
AcDbSymbolTableRecord
100
AcDbBlockTableRecord
  2
*Paper_Space
 70
    0
280
    1
281
    0
  0
BLOCK_RECORD
  5
55
330
1
100
AcDbSymbolTableRecord
100
AcDbBlockTableRecord
  2
*D2
 70
    0
280
    1
281
    0
  0
BLOCK_RECORD
  5
58
330
1
100
AcDbSymbolTableRecord
100
AcDbBlockTableRecord
  2
*D3
 70
    0
280
    1
281
    0
  0
BLOCK_RECORD
  5
5B
330
1
100
AcDbSymbolTableRecord
100
AcDbBlockTableRecord
  2
*D4
 70
    0
280
    1
281
    0
  0
BLOCK_RECORD
  5
5E
330
1
100
AcDbSymbolTableRecord
100
AcDbBlockTableRecord
  2
*D1
 70
    0
280
    1
281
    0
  0
ENDTAB
  0
ENDSEC
  0
SECTION
  2
BLOCKS
  0
BLOCK
  5
20
330
1F
100
AcDbEntity
  8
0
100
AcDbBlockBegin
  2
*Model_Space
 70
    0
 10
0
 20
0
 30
0
  3
*Model_Space
  1

  0
ENDBLK
  5
21
330
1F
100
AcDbEntity
  8
0
100
AcDbBlockEnd
  0
BLOCK
  5
1C
330
1B
100
AcDbEntity
  8
0
100
AcDbBlockBegin
  2
*Paper_Space
 70
    0
 10
0
 20
0
 30
0
  3
*Paper_Space
  1

  0
ENDBLK
  5
1D
330
1F
100
AcDbEntity
  8
0
100
AcDbBlockEnd
  0
BLOCK
  5
56
330
55
100
AcDbEntity
  8
0
100
AcDbBlockBegin
  2
*D2
 70
    1
 10
0
 20
0
  3
*D2
  1

  0
LINE
  5
61
100
AcDbEntity
  8
mesures
  6
ByBlock
 62
    0
370
   -2
100
AcDbLine
 10
5.516939548989235
 20
-22.03590318773806
 11
3.281199331903662
 21
-13.69200710504958
  0
LINE
  5
62
100
AcDbEntity
  8
mesures
  6
ByBlock
 62
    0
370
   -2
100
AcDbLine
 10
12.76138324615725
 20
-20.09476034946917
 11
10.52564302907167
 21
-11.75086426678068
  0
LINE
  5
63
100
AcDbEntity
  8
mesures
  6
ByBlock
 62
    0
370
   -2
100
AcDbLine
 10
3.604723138281811
 20
-14.89941438791091
 11
10.84916683544982
 21
-12.95827154964202
  0
SOLID
  5
64
100
AcDbEntity
  8
mesures
  6
ByBlock
 62
    0
370
   -2
100
AcDbTrace
 10
3.604723138281811
 20
-14.89941438791091
 30
0
 11
5.911795306388888
 21
-13.85026667312392
 31
0
 12
6.127280101620078
 22
-14.65446687718531
 32
0
 13
6.127280101620078
 23
-14.65446687718531
 33
0
  0
SOLID
  5
65
100
AcDbEntity
  8
mesures
  6
ByBlock
 62
    0
370
   -2
100
AcDbTrace
 10
10.84916683544982
 20
-12.95827154964202
 30
0
 11
8.542094667342745
 21
-14.00741926442901
 31
0
 12
8.326609872111554
 22
-13.20321906036763
 32
0
 13
8.326609872111554
 23
-13.20321906036763
 33
0
  0
MTEXT
  5
66
100
AcDbEntity
  8
mesures
  6
CONTINUOUS
 62
    0
370
   -2
100
AcDbMText
 10
6.74165927729859
 20
-12.11773204448447
 30
0
 40
2.5
 41
4.027777777777933
 71
    5
 72
    1
  1
7,5
  7
STANDARD
210
0
220
0
230
1
 50
14.99999999999991
 73
    2
 44
1
  0
ENDBLK
  5
57
330
55
100
AcDbEntity
  8
0
100
AcDbBlockEnd
  0
BLOCK
  5
59
330
58
100
AcDbEntity
  8
0
100
AcDbBlockBegin
  2
*D3
 70
    1
 10
0
 20
0
  3
*D3
  1

  0
LINE
  5
67
100
AcDbEntity
  8
mesures
  6
ByBlock
 62
    0
370
   -2
100
AcDbLine
 10
68.125
 20
0
 11
8.510330322138685
 21
0
  0
LINE
  5
68
100
AcDbEntity
  8
mesures
  6
ByBlock
 62
    0
370
   -2
100
AcDbLine
 10
-10.08941264368877
 20
6.171535267312698
 11
-6.250547011298449
 21
3.955165161069343
  0
ARC
  5
69
100
AcDbEntity
  8
mesures
  6
ByBlock
 62
    0
370
   -2
100
AcDbCircle
 10
0.5999999999999972
 20
-0
 40
6.660330322138687
100
AcDbArc
 50
0
 51
150
  0
SOLID
  5
6A
100
AcDbEntity
  8
mesures
  6
ByBlock
 62
    0
370
   -2
100
AcDbTrace
 10
7.260330322138684
 20
0
 30
0
 11
6.384909236819678
 21
2.378430331053643
 31
0
 12
7.20285867431016
 22
2.533769903916479
 32
0
 13
7.20285867431016
 23
2.533769903916479
 33
0
  0
SOLID
  5
6B
100
AcDbEntity
  8
mesures
  6
ByBlock
 62
    0
370
   -2
100
AcDbTrace
 10
-5.168015256567901
 20
3.330165161069343
 30
0
 11
-3.851358397592804
 21
5.495738441291207
 31
0
 12
-3.220663192146274
 22
4.952235706233727
 32
0
 13
-3.220663192146274
 23
4.952235706233727
 33
0
  0
MTEXT
  5
6C
100
AcDbEntity
  8
mesures
  6
CONTINUOUS
 62
    0
370
   -2
100
AcDbMText
 10
2.485582237232372
 20
7.037088711200616
 30
0
 40
2.5
 41
6.111111111111265
 71
    8
 72
    1
  1
150%%D
  7
STANDARD
210
0
220
0
230
1
 50
345
 73
    2
 44
1
  0
ENDBLK
  5
5A
330
58
100
AcDbEntity
  8
0
100
AcDbBlockEnd
  0
BLOCK
  5
5C
330
5B
100
AcDbEntity
  8
0
100
AcDbBlockBegin
  2
*D4
 70
    1
 10
0
 20
0
  3
*D4
  1

  0
LINE
  5
6D
100
AcDbEntity
  8
mesures
  6
ByBlock
 62
    0
370
   -2
100
AcDbLine
 10
9.291659742605914
 20
-4.643455962299571
 11
14.87310527579379
 21
4.172048682192562
  0
LINE
  5
6E
100
AcDbEntity
  8
mesures
  6
ByBlock
 62
    0
370
   -2
100
AcDbLine
 10
3.08241076284338
 20
-0.7121342308544928
 11
8.663856296031252
 21
8.103370413637641
  0
LINE
  5
6F
100
AcDbEntity
  8
mesures
  6
ByBlock
 62
    0
370
   -2
100
AcDbLine
 10
14.20443617281366
 20
3.11593238617221
 11
7.995187193051123
 21
7.047254117617288
  0
SOLID
  5
70
100
AcDbEntity
  8
mesures
  6
ByBlock
 62
    0
370
   -2
100
AcDbTrace
 10
14.20443617281366
 20
3.11593238617221
 30
0
 11
11.86951822981507
 21
4.101554583446747
 31
0
 12
12.31488893173084
 22
4.80498660081819
 32
0
 13
12.31488893173084
 23
4.80498660081819
 33
0
  0
SOLID
  5
71
100
AcDbEntity
  8
mesures
  6
ByBlock
 62
    0
370
   -2
100
AcDbTrace
 10
7.995187193051123
 20
7.047254117617288
 30
0
 11
10.33010513604971
 21
6.061631920342752
 31
0
 12
9.884734434133945
 22
5.358199902971307
 32
0
 13
9.884734434133945
 23
5.358199902971307
 33
0
  0
MTEXT
  5
72
100
AcDbEntity
  8
mesures
  6
CONTINUOUS
 62
    0
370
   -2
100
AcDbMText
 10
12.10281533740258
 20
6.665767695925277
 30
0
 40
2.5
 41
5.972222222222534
 71
    5
 72
    1
  1
7,35
  7
STANDARD
210
0
220
0
230
1
 50
327.6604774691613
 73
    2
 44
1
  0
ENDBLK
  5
5D
330
5B
100
AcDbEntity
  8
0
100
AcDbBlockEnd
  0
BLOCK
  5
5F
330
5E
100
AcDbEntity
  8
0
100
AcDbBlockBegin
  2
*D1
 70
    1
 10
0
 20
0
  3
*D1
  1

  0
LINE
  5
73
100
AcDbEntity
  8
mesures
  6
ByBlock
 62
    0
370
   -2
100
AcDbLine
 10
5.451146344321279
 20
-23.39939515541944
 11
-12.07647890855755
 21
-33.34375803986369
  0
LINE
  5
74
100
AcDbEntity
  8
mesures
  6
ByBlock
 62
    0
370
   -2
100
AcDbLine
 10
-10.99135179637972
 20
5.581641536452075
 11
-28.51897704925855
 21
-4.362721347992175
  0
LINE
  5
75
100
AcDbEntity
  8
mesures
  6
ByBlock
 62
    0
370
   -2
100
AcDbLine
 10
-10.98927170871944
 20
-32.72692702198265
 11
-27.43176984942043
 21
-3.745890330111132
  0
SOLID
  5
76
100
AcDbEntity
  8
mesures
  6
ByBlock
 62
    0
370
   -2
100
AcDbTrace
 10
-10.98927170871944
 20
-32.72692702198265
 30
0
 11
-12.58500388617174
 21
-30.75793445365224
 31
0
 12
-11.8608636027913
 22
-30.34709079096059
 32
0
 13
-11.8608636027913
 23
-30.34709079096059
 33
0
  0
SOLID
  5
77
100
AcDbEntity
  8
mesures
  6
ByBlock
 62
    0
370
   -2
100
AcDbTrace
 10
-27.43176984942043
 20
-3.745890330111132
 30
0
 11
-25.83603767196812
 21
-5.714882898441537
 31
0
 12
-26.56017795534857
 22
-6.12572656113319
 32
0
 13
-26.56017795534857
 23
-6.12572656113319
 33
0
  0
MTEXT
  5
78
100
AcDbEntity
  8
mesures
  6
CONTINUOUS
 62
    0
370
   -2
100
AcDbMText
 10
-17.57970997931277
 20
-17.31116214922533
 30
0
 40
2.5
 41
7.916666666667131
 71
    5
 72
    1
  1
33,32
  7
STANDARD
210
0
220
0
230
1
 50
299.5685693102845
 73
    2
 44
1
  0
ENDBLK
  5
60
330
5E
100
AcDbEntity
  8
0
100
AcDbBlockEnd
  0
ENDSEC
  0
SECTION
  2
ENTITIES
  0
LINE
  5
79
100
AcDbEntity
  8
HoleCutter
  6
CONTINUOUS
 62
  256
370
   -1
100
AcDbLine
 10
-2.857883832488658
 20
1.650000000000014
 11
-0.8578838324886584
 21
5.114101615137772
  0
LINE
  5
7A
100
AcDbEntity
  8
HoleCutter
  6
CONTINUOUS
 62
  256
370
   -1
100
AcDbLine
 10
4.857883832488639
 20
1.814101615137771
 11
2.857883832488639
 21
-1.649999999999986
  0
DIMENSION
  5
7B
100
AcDbEntity
  8
mesures
  6
CONTINUOUS
 62
  256
370
   -1
100
AcDbDimension
  2
*D1
 10
-27.43176984942043
 20
-3.74589033011114
 30
0
 11
-17.57970997931277
 21
-17.31116214922533
 31
0
 70
   33
 71
    5
 72
    0
  3
Standard
 53
0
210
0
220
0
230
1
100
AcDbAlignedDimension
 13
5.994749944240336
 23
-23.09097964647892
 33
0
 14
-10.44774819646066
 24
5.890057045392597
 34
0
  0
DIMENSION
  5
7C
100
AcDbEntity
  8
mesures
  6
ByLayer
 62
  256
370
   -1
100
AcDbDimension
  2
*D2
 10
10.84916683544982
 20
-12.95827154964202
 30
0
 11
6.74165927729859
 21
-12.11773204448447
 31
0
 70
   33
 71
    5
  3
Standard
 53
0
210
0
220
0
230
1
100
AcDbAlignedDimension
 13
5.67870145217831
 23
-22.63960682916873
 33
0
 14
12.92314514934632
 24
-20.69846399089984
 34
0
  0
DIMENSION
  5
7D
100
AcDbEntity
  8
mesures
  6
ByLayer
 62
  256
370
   -1
100
AcDbDimension
  2
*D3
 10
-9.548146766323494
 20
5.859035267312699
 30
0
 11
0
 21
0
 31
0
 70
   34
 71
    5
  3
Standard
 53
0
210
0
220
0
230
1
100
AcDb2LineAngularDimension
 13
67.5
 23
0
 33
0
 14
-67.5
 24
0
 34
0
 15
8.241679932270008
 25
-4.411925965957051
 35
0
 16
5
 26
5
 36
0
  0
DIMENSION
  5
7E
100
AcDbEntity
  8
mesures
  6
ByLayer
 62
  256
370
   -1
100
AcDbDimension
  2
*D4
 10
7.995187193051124
 20
7.047254117617288
 30
0
 11
12.10281533740258
 21
6.665767695925277
 31
0
 70
   33
 71
    5
  3
Standard
 53
0
210
0
220
0
230
1
100
AcDbAlignedDimension
 13
8.957325191115849
 23
-5.171514110309747
 33
0
 14
2.748076211353315
 24
-1.240192378864669
 34
0
  0
LINE
  5
7F
100
AcDbEntity
  8
ScrewGuides
  6
ByLayer
 62
  256
370
   -1
100
AcDbLine
 10
-64.37601351496592
 20
4.990612149524596
 11
70.62398648503408
 21
4.990612149524596
  0
LINE
  5
80
100
AcDbEntity
  8
ScrewGuides
  6
ByLayer
 62
  256
370
   -1
100
AcDbLine
 10
-64.37601351496592
 20
-0.5093878504754041
 11
70.62398648503408
 21
-0.5093878504754041
  0
LINE
  5
81
100
AcDbEntity
  8
ScrewGuides
  6
ByLayer
 62
  256
370
   -1
100
AcDbLine
 10
-64.37601351496592
 20
-10.0093878504754
 11
70.62398648503408
 21
-10.0093878504754
  0
LINE
  5
82
100
AcDbEntity
  8
ScrewGuides
  6
ByLayer
 62
  256
370
   -1
100
AcDbLine
 10
-64.37601351496592
 20
-15.5093878504754
 11
70.62398648503408
 21
-15.5093878504754
  0
LINE
  5
83
100
AcDbEntity
  8
ScrewGuides
  6
ByLayer
 62
  256
370
   -1
100
AcDbLine
 10
-64.37601351496592
 20
3.940612149524596
 11
70.62398648503408
 21
3.940612149524596
  0
LINE
  5
84
100
AcDbEntity
  8
ScrewGuides
  6
ByLayer
 62
  256
370
   -1
100
AcDbLine
 10
-64.37601351496592
 20
0.5406121495245959
 11
70.62398648503408
 21
0.5406121495245959
  0
LINE
  5
85
100
AcDbEntity
  8
ScrewGuides
  6
ByLayer
 62
  256
370
   -1
100
AcDbLine
 10
-64.37601351496592
 20
-14.4593878504754
 11
70.62398648503408
 21
-14.4593878504754
  0
LINE
  5
86
100
AcDbEntity
  8
ScrewGuides
  6
ByLayer
 62
  256
370
   -1
100
AcDbLine
 10
-64.37601351496592
 20
-11.0593878504754
 11
70.62398648503408
 21
-11.0593878504754
  0
LINE
  5
87
100
AcDbEntity
  8
ScrewGuides
  6
ByLayer
 62
  256
370
   -1
100
AcDbLine
 10
-23.81499641168855
 20
-58.74218461535035
 11
-23.81499641168854
 21
76.25781538464965
  0
LINE
  5
88
100
AcDbEntity
  8
ScrewGuides
  6
ByLayer
 62
  256
370
   -1
100
AcDbLine
 10
-12.61499641168855
 20
-58.74218461535035
 11
-12.61499641168854
 21
76.25781538464965
  0
LINE
  5
89
100
AcDbEntity
  8
ScrewGuides
  6
ByLayer
 62
  256
370
   -1
100
AcDbLine
 10
-14.11499641168855
 20
-58.74218461535035
 11
-14.11499641168854
 21
76.25781538464965
  0
LINE
  5
8A
100
AcDbEntity
  8
Guides
  6
ByLayer
 62
  256
370
   -3
100
AcDbLine
 10
-67.25
 20
-15
 11
67.75
 21
-15
  0
ARC
  5
8B
100
AcDbEntity
  8
HolderProfile
  6
ByLayer
 62
  256
370
   -3
100
AcDbCircle
 10
26.35667655627108
 20
9.213487165724104
 40
1
100
AcDbArc
 50
240
 51
15.00000000000003
  0
LINE
  5
8C
100
AcDbEntity
  8
HolderProfile
  6
ByLayer
 62
  256
370
   -3
100
AcDbLine
 10
27.32260238256014
 20
9.472306210826625
 11
26.95657697877571
 21
10.83833161461106
  0
ARC
  5
8D
100
AcDbEntity
  8
HolderProfile
  6
ByLayer
 62
  256
370
   -3
100
AcDbCircle
 10
25.99065115248664
 20
10.57951256950854
 40
1
100
AcDbArc
 50
15.00000000000003
 51
60.00000000000005
  0
LINE
  5
8E
100
AcDbEntity
  8
HolderProfile
  6
ByLayer
 62
  256
370
   -3
100
AcDbLine
 10
26.49065095546533
 20
11.44553808704329
 11
4.499881663099218
 21
24.14191465767782
  0
LINE
  5
8F
100
AcDbEntity
  8
Car Profile
  6
ByLayer
 62
  256
370
   -3
100
AcDbLine
 10
37.65109970079901
 20
1.191538222996344
 11
8.521729642215233
 21
18.00938786764389
  0
ARC
  5
90
100
AcDbEntity
  8
Car Profile
  6
ByLayer
 62
  256
370
   -3
100
AcDbCircle
 10
7.771729642215236
 20
16.71034976196724
 40
1.5
100
AcDbArc
 50
60.0000000000001
 51
193.9258649390146
  0
LINE
  5
91
100
AcDbEntity
  8
HolderProfile
  6
ByLayer
 62
  256
370
   -3
100
AcDbLine
 10
8.066849645365053
 20
18.6184231177881
 11
25.85667634395855
 21
8.347461884518353
  0
ARC
  5
92
100
AcDbEntity
  8
HolderProfile
  6
ByLayer
 62
  256
370
   -3
100
AcDbCircle
 10
7.316849645365059
 20
17.31938501211145
 40
1.5
100
AcDbArc
 50
60.00000000000001
 51
193.0975983690522
  0
ARC
  5
93
100
AcDbEntity
  8
HolderProfile
  6
ByLayer
 62
  256
370
   -3
100
AcDbCircle
 10
32.14798625499895
 20
-11.06549027503689
 40
0.8
100
AcDbArc
 50
291.422351903588
 51
303.3853881518707
  0
LINE
  5
94
100
AcDbEntity
  8
HolderProfile
  6
ByLayer
 62
  256
370
   -3
100
AcDbLine
 10
32.58820050718067
 20
-11.73348085294656
 11
35.03056014564613
 21
-10.12393491418442
  0
ARC
  5
95
100
AcDbEntity
  8
HolderProfile
  6
ByLayer
 62
  256
370
   -3
100
AcDbCircle
 10
34.59034589346442
 20
-9.455944336274754
 40
0.8
100
AcDbArc
 50
303.3853881518707
 51
325.7781549385492
  0
LINE
  5
96
100
AcDbEntity
  8
HolderProfile
  6
ByLayer
 62
  256
370
   -3
100
AcDbLine
 10
35.25183886116105
 20
-9.905863277516296
 11
36.18072886478838
 21
-8.540163483976599
  0
ARC
  5
97
100
AcDbEntity
  8
HolderProfile
  6
ByLayer
 62
  256
370
   -3
100
AcDbCircle
 10
35.51923589709175
 20
-8.09024454273505
 40
0.8
100
AcDbArc
 50
325.7781549385489
 51
352.3431036716037
  0
ARC
  5
98
100
AcDbEntity
  8
HolderProfile
  6
ByLayer
 62
  256
370
   -3
100
AcDbCircle
 10
19.42499432087648
 20
-11.97397343009166
 40
1.5
100
AcDbArc
 50
234.6383007272907
 51
249.8693796743598
  0
LINE
  5
99
100
AcDbEntity
  8
HolderProfile
  6
ByLayer
 62
  256
370
   -3
100
AcDbLine
 10
18.90875203877506
 20
-13.38233911632898
 11
21.3257401366288
 21
-14.26829612567757
  0
ARC
  5
9A
100
AcDbEntity
  8
HolderProfile
  6
ByLayer
 62
  256
370
   -3
100
AcDbCircle
 10
21.84198241873022
 20
-12.85993043944025
 40
1.5
100
AcDbArc
 50
249.8693796743598
 51
268.2718132384218
  0
LINE
  5
9B
100
AcDbEntity
  8
HolderProfile
  6
ByLayer
 62
  256
370
   -3
100
AcDbLine
 10
21.79674545511599
 20
-14.35924815664463
 11
24.29539255415721
 21
-14.43463658606632
  0
ARC
  5
9C
100
AcDbEntity
  8
HolderProfile
  6
ByLayer
 62
  256
370
   -3
100
AcDbCircle
 10
24.34062951777144
 20
-12.93531886886193
 40
1.5
100
AcDbArc
 50
268.2718132384218
 51
284.9999999999999
  0
LINE
  5
9D
100
AcDbEntity
  8
HolderProfile
  6
ByLayer
 62
  256
370
   -3
100
AcDbLine
 10
28.4368614935097
 20
-13.38090555541728
 11
32.44017823480857
 21
-11.8102209961267
  0
LINE
  5
9E
100
AcDbEntity
  8
HolderProfile
  6
ByLayer
 62
  256
370
   -3
100
AcDbLine
 10
24.72885808542522
 20
-14.38420760829553
 11
28.27723009902045
 21
-13.4334241928075
  0
ARC
  5
9F
100
AcDbEntity
  8
HolderProfile
  6
ByLayer
 62
  256
370
   -3
100
AcDbCircle
 10
27.88900153136667
 20
-11.9845354533739
 40
1.5
100
AcDbArc
 50
284.9999999999999
 51
291.4223519035882
  0
ARC
  5
A0
100
AcDbEntity
  8
Car Profile
  6
ByLayer
 62
  256
370
   -3
100
AcDbCircle
 10
57.91647636341536
 20
30.40253060893563
 40
53.48008829532331
100
AcDbArc
 50
195.2347292201018
 51
229.6379738382972
  0
LINE
  5
A1
100
AcDbEntity
  8
Car Profile
  6
ByLayer
 62
  256
370
   -3
100
AcDbLine
 10
24.7568345180993
 20
-10.6176082834051
 11
41.05620107550734
 21
-4.810187733456019
  0
ARC
  5
A2
100
AcDbEntity
  8
Car Profile
  6
ByLayer
 62
  256
370
   -3
100
AcDbCircle
 10
24.25338965519751
 20
-9.204617388169815
 40
1.5
100
AcDbArc
 50
229.6379738382976
 51
289.610846905285
  0
ARC
  5
A3
100
AcDbEntity
  8
HolderProfile
  6
ByLayer
 62
  256
370
   -3
100
AcDbCircle
 10
24.25338965519751
 20
-9.204617388169815
 40
1.8
100
AcDbArc
 50
229.6379738382976
 51
289.610846905285
  0
LINE
  5
A4
100
AcDbEntity
  8
HolderProfile
  6
ByLayer
 62
  256
370
   -3
100
AcDbLine
 10
24.85752349067965
 20
-10.90020646245215
 11
35.50913497520014
 21
-7.105065883988182
  0
ARC
  5
A5
100
AcDbEntity
  8
HolderProfile
  6
ByLayer
 62
  256
370
   -3
100
AcDbCircle
 10
35.67694992950074
 20
-7.576062849066609
 40
0.5
100
AcDbArc
 50
99.12910958352053
 51
109.6108469052849
  0
LINE
  5
A6
100
AcDbEntity
  8
HolderProfile
  6
ByLayer
 62
  256
370
   -3
100
AcDbLine
 10
35.62274094122714
 20
-7.078359383820455
 11
35.59762007431075
 21
-7.08239618614968
  0
ARC
  5
A7
100
AcDbEntity
  8
HolderProfile
  6
ByLayer
 62
  256
370
   -3
100
AcDbCircle
 10
35.75052438363299
 20
-8.067035156087968
 40
1
100
AcDbArc
 50
74.35775354279102
 51
91.60414210689756
  0
ARC
  5
A8
100
AcDbEntity
  8
HolderProfile
  6
ByLayer
 62
  256
370
   -3
100
AcDbCircle
 10
35.78140065160711
 20
-8.065692709654307
 40
1
100
AcDbArc
 50
93.37496373710012
 51
99.12910958352097
  0
LINE
  5
A9
100
AcDbEntity
  8
HolderProfile
  6
ByLayer
 62
  256
370
   -3
100
AcDbLine
 10
36.0335237987635
 20
-7.107814593464738
 11
36.02015430915296
 21
-7.104071136373783
  0
ARC
  5
AA
100
AcDbEntity
  8
HolderProfile
  6
ByLayer
 62
  256
370
   -3
100
AcDbCircle
 10
35.97959781365951
 20
-7.300407397407575
 40
0.2
100
AcDbArc
 50
53.36588612403312
 51
74.35775354279127
  0
LINE
  5
AB
100
AcDbEntity
  8
HolderProfile
  6
ByLayer
 62
  256
370
   -3
100
AcDbLine
 10
36.18033936530026
 20
-7.200443876725615
 11
36.09893836692842
 21
-7.139914929218349
  0
ARC
  5
AC
100
AcDbEntity
  8
HolderProfile
  6
ByLayer
 62
  256
370
   -3
100
AcDbCircle
 10
36.06099881203135
 20
-7.36093634491484
 40
0.2
100
AcDbArc
 50
20.73733570063867
 51
53.36588612403372
  0
LINE
  5
AD
100
AcDbEntity
  8
HolderProfile
  6
ByLayer
 62
  256
370
   -3
100
AcDbLine
 10
36.31069169079993
 20
-7.455592186021832
 11
36.24804151145305
 21
-7.290119478328947
  0
LINE
  5
AE
100
AcDbEntity
  8
HolderProfile
  6
ByLayer
 62
  256
370
   -3
100
AcDbLine
 10
36.31210287086642
 20
-8.196837046680663
 11
36.32361918491024
 21
-7.529861833916613
  0
ARC
  5
AF
100
AcDbEntity
  8
HolderProfile
  6
ByLayer
 62
  256
370
   -3
100
AcDbCircle
 10
36.12364899137823
 20
-7.526409052607725
 40
0.2
100
AcDbArc
 50
359.0108018757713
 51
20.73733570063867
  0
ARC
  5
B0
100
AcDbEntity
  8
HolderProfile
  6
ByLayer
 62
  256
370
   -3
100
AcDbCircle
 10
58.97624251582445
 20
31.03235915651687
 40
54.94777098573799
100
AcDbArc
 50
194.8180279449946
 51
229.22127256319
  0
LINE
  5
B1
100
AcDbEntity
  8
Car Profile
  6
ByLayer
 62
  256
370
   -3
100
AcDbLine
 10
13.58194054603782
 20
15.08787374016565
 11
15.58194054603782
 21
18.55197535530341
  0
LINE
  5
B2
100
AcDbEntity
  8
Car Profile
  6
ByLayer
 62
  256
370
   -3
100
AcDbLine
 10
15.58194054603782
 20
18.55197535530341
 11
20.77809296874446
 21
15.5519753553034
  0
LINE
  5
B3
100
AcDbEntity
  8
Car Profile
  6
ByLayer
 62
  256
370
   -3
100
AcDbLine
 10
20.77809296874446
 20
15.5519753553034
 11
18.77809296874446
 21
12.08787374016565
  0
ARC
  5
B4
100
AcDbEntity
  8
HolderProfile
  6
ByLayer
 62
  256
370
   -3
100
AcDbCircle
 10
56.20191546186811
 20
28.53822781223259
 40
56.65983264106373
100
AcDbArc
 50
223.584054032156
 51
224.6870323741844
  0
LINE
  5
B5
100
AcDbEntity
  8
HolderProfile
  6
ByLayer
 62
  256
370
   -3
100
AcDbLine
 10
16.05133964648438
 20
-11.41916327116241
 11
18.5568900938027
 21
-13.19724570188426
  0
ARC
  5
B6
100
AcDbEntity
  8
HolderProfile
  6
ByLayer
 62
  256
370
   -3
100
AcDbCircle
 10
16.6300757978669
 20
-10.60364842330068
 40
1
100
AcDbArc
 50
224.6870323741844
 51
234.6383007272907
  0
ARC
  5
B7
100
AcDbEntity
  8
HolderProfile
  6
ByLayer
 62
  256
370
   -3
100
AcDbCircle
 10
2.999881759082579
 20
21.54383839090848
 40
3
100
AcDbArc
 50
59.99999999999988
 51
179.4912993124116
  0
LINE
  5
B8
100
AcDbEntity
  8
Guides
  6
ByLayer
 62
  256
370
   -3
100
AcDbLine
 10
8.066849645365053
 20
18.6184231177881
 11
21.29096865986395
 21
10.98347444497151
  0
LINE
  5
B9
100
AcDbEntity
  8
Guides
  6
ByLayer
 62
  256
370
   -3
100
AcDbLine
 10
78.85180752741049
 20
-44.5291806357489
 11
-38.06162198348873
 21
22.97081936425108
  0
LINE
  5
BA
100
AcDbEntity
  8
Guides
  6
ByLayer
 62
  256
370
   -3
100
AcDbLine
 10
6.56684964536505
 20
16.02034690643479
 11
19.79096865986395
 21
8.385398233618201
  0
LINE
  5
BB
100
AcDbEntity
  8
Screw
  6
ByLayer
 62
  256
370
   -3
100
AcDbLine
 10
5.305039724910891
 20
15.53641763837692
 11
-1.623163505364615
 21
19.53641763837692
  0
LINE
  5
BC
100
AcDbEntity
  8
Screw
  6
ByLayer
 62
  256
370
   -3
100
AcDbLine
 10
-1.623163505364615
 20
19.53641763837692
 11
-1.098163505364614
 21
20.44574431235058
  0
LINE
  5
BD
100
AcDbEntity
  8
Screw
  6
ByLayer
 62
  256
370
   -3
100
AcDbLine
 10
-1.098163505364614
 20
20.44574431235058
 11
-3.869444797474817
 21
22.04574431235059
  0
LINE
  5
BE
100
AcDbEntity
  8
Screw
  6
ByLayer
 62
  256
370
   -3
100
AcDbLine
 10
-3.869444797474817
 20
22.04574431235059
 11
-6.619444797474819
 21
17.28260459153617
  0
LINE
  5
BF
100
AcDbEntity
  8
Screw
  6
ByLayer
 62
  256
370
   -3
100
AcDbLine
 10
-6.619444797474819
 20
17.28260459153617
 11
-3.848163505364617
 21
15.68260459153617
  0
LINE
  5
C0
100
AcDbEntity
  8
Screw
  6
ByLayer
 62
  256
370
   -3
100
AcDbLine
 10
-3.848163505364617
 20
15.68260459153617
 11
-3.323163505364616
 21
16.59193126550984
  0
LINE
  5
C1
100
AcDbEntity
  8
Screw
  6
ByLayer
 62
  256
370
   -3
100
AcDbLine
 10
-3.323163505364616
 20
16.59193126550984
 11
3.605039724910891
 21
12.59193126550983
  0
LINE
  5
C2
100
AcDbEntity
  8
Screw
  6
ByLayer
 62
  256
370
   -3
100
AcDbLine
 10
3.605039724910891
 20
12.59193126550983
 11
5.305039724910891
 21
15.53641763837692
  0
LINE
  5
C3
100
AcDbEntity
  8
Screw
  6
ByLayer
 62
  256
370
   -3
100
AcDbLine
 10
4.531001619234235
 20
17.19574431235058
 11
5.830039724910892
 21
16.44574431235058
  0
LINE
  5
C4
100
AcDbEntity
  8
Screw
  6
ByLayer
 62
  256
370
   -3
100
AcDbLine
 10
5.830039724910892
 20
16.44574431235058
 11
3.08003972491089
 21
11.68260459153617
  0
LINE
  5
C5
100
AcDbEntity
  8
Screw
  6
ByLayer
 62
  256
370
   -3
100
AcDbLine
 10
3.08003972491089
 20
11.68260459153617
 11
1.781001619234233
 21
12.43260459153617
  0
LINE
  5
C6
100
AcDbEntity
  8
Screw
  6
ByLayer
 62
  256
370
   -3
100
AcDbLine
 10
1.781001619234233
 20
12.43260459153617
 11
4.531001619234235
 21
17.19574431235058
  0
LINE
  5
C7
100
AcDbEntity
  8
Guides
  6
ByLayer
 62
  256
370
   -3
100
AcDbLine
 10
1.066849645365036
 20
6.494067464805976
 11
14.29096865986394
 21
-1.140881208010615
  0
LINE
  5
C8
100
AcDbEntity
  8
Screw
  6
ByLayer
 62
  256
370
   -3
100
AcDbLine
 10
0.3300397249108924
 20
6.919464870721761
 11
-6.598163505364614
 21
10.91946487072176
  0
LINE
  5
C9
100
AcDbEntity
  8
Screw
  6
ByLayer
 62
  256
370
   -3
100
AcDbLine
 10
-6.598163505364614
 20
10.91946487072176
 11
-6.073163505364613
 21
11.82879154469542
  0
LINE
  5
CA
100
AcDbEntity
  8
Screw
  6
ByLayer
 62
  256
370
   -3
100
AcDbLine
 10
-6.073163505364613
 20
11.82879154469542
 11
-8.844444797474816
 21
13.42879154469542
  0
LINE
  5
CB
100
AcDbEntity
  8
Screw
  6
ByLayer
 62
  256
370
   -3
100
AcDbLine
 10
-8.844444797474816
 20
13.42879154469542
 11
-11.06944479747482
 21
9.574978497854675
  0
LINE
  5
CC
100
AcDbEntity
  8
Screw
  6
ByLayer
 62
  256
370
   -3
100
AcDbLine
 10
-11.06944479747482
 20
9.574978497854675
 11
-11.59444479747482
 21
8.66565182388101
  0
LINE
  5
CD
100
AcDbEntity
  8
Screw
  6
ByLayer
 62
  256
370
   -3
100
AcDbLine
 10
-11.59444479747482
 20
8.66565182388101
 11
-8.823163505364615
 21
7.065651823881009
  0
LINE
  5
CE
100
AcDbEntity
  8
Screw
  6
ByLayer
 62
  256
370
   -3
100
AcDbLine
 10
-8.823163505364615
 20
7.065651823881009
 11
-8.298163505364615
 21
7.974978497854671
  0
LINE
  5
CF
100
AcDbEntity
  8
Screw
  6
ByLayer
 62
  256
370
   -3
100
AcDbLine
 10
-8.298163505364615
 20
7.974978497854671
 11
-1.369960275089109
 21
3.974978497854671
  0
LINE
  5
D0
100
AcDbEntity
  8
Screw
  6
ByLayer
 62
  256
370
   -3
100
AcDbLine
 10
-1.369960275089109
 20
3.974978497854671
 11
0.3300397249108924
 21
6.919464870721761
  0
LINE
  5
D1
100
AcDbEntity
  8
Screw
  6
ByLayer
 62
  256
370
   -3
100
AcDbLine
 10
-0.4439983807657644
 20
8.57879154469542
 11
0.8550397249108928
 21
7.82879154469542
  0
LINE
  5
D2
100
AcDbEntity
  8
Screw
  6
ByLayer
 62
  256
370
   -3
100
AcDbLine
 10
0.8550397249108928
 20
7.82879154469542
 11
-1.894960275089109
 21
3.065651823881005
  0
LINE
  5
D3
100
AcDbEntity
  8
Screw
  6
ByLayer
 62
  256
370
   -3
100
AcDbLine
 10
-1.894960275089109
 20
3.065651823881005
 11
-3.193998380765766
 21
3.815651823881009
  0
LINE
  5
D4
100
AcDbEntity
  8
Screw
  6
ByLayer
 62
  256
370
   -3
100
AcDbLine
 10
-3.193998380765766
 20
3.815651823881009
 11
-0.4439983807657644
 21
8.57879154469542
  0
LINE
  5
D5
100
AcDbEntity
  8
Guides
  6
ByLayer
 62
  256
370
   -3
100
AcDbLine
 10
-2.944394145716094
 20
-70.000274003787
 11
-2.944394145716086
 21
64.999725996213
  0
LINE
  5
D6
100
AcDbEntity
  8
Guides
  6
ByLayer
 62
  256
370
   -3
100
AcDbLine
 10
4.499881759082584
 20
24.1419146022618
 11
26.49065095546533
 21
11.44553808704329
  0
LINE
  5
D7
100
AcDbEntity
  8
Guides
  6
ByLayer
 62
  256
370
   -3
100
AcDbLine
 10
-38.20171543621089
 20
-32.62760251409771
 11
29.29828456378912
 21
84.28582699680149
  0
LINE
  5
D8
100
AcDbEntity
  8
Guides
  6
ByLayer
 62
  256
370
   -3
100
AcDbLine
 10
-40.79979164756421
 20
-31.12760251409771
 11
26.70020835243581
 21
85.78582699680149
  0
ARC
  5
D9
100
AcDbEntity
  8
AngleBlock
  6
ByLayer
 62
  256
370
   -3
100
AcDbCircle
 10
-5.176444953284967
 20
28.57384389603473
 40
1
100
AcDbArc
 50
59.99999999999993
 51
150
  0
LINE
  5
DA
100
AcDbEntity
  8
AngleBlock
  6
ByLayer
 62
  256
370
   -3
100
AcDbLine
 10
4.499881759082584
 20
24.1419146022618
 11
-4.676444837870084
 21
29.43986923318434
  0
ARC
  5
DB
100
AcDbEntity
  8
AngleBlock
  6
ByLayer
 62
  256
370
   -3
100
AcDbCircle
 10
2.999881759082579
 20
21.54383839090848
 40
3
100
AcDbArc
 50
59.99999999999988
 51
179.4912993124116
  0
ARC
  5
DC
100
AcDbEntity
  8
AngleBlock
  6
ByLayer
 62
  256
370
   -3
100
AcDbCircle
 10
-18.77771365474946
 20
-59.38910262700224
 40
59.49395620801842
100
AcDbArc
 50
71.60151867472042
 51
85.91774504785934
  0
ARC
  5
DD
100
AcDbEntity
  8
AngleBlock
  6
ByLayer
 62
  256
370
   -3
100
AcDbCircle
 10
-14.47123820069003
 20
0.9513730660285117
 40
1
100
AcDbArc
 50
195.3487465068383
 51
265.9177450478592
  0
LINE
  5
DE
100
AcDbEntity
  8
AngleBlock
  6
ByLayer
 62
  256
370
   -3
100
AcDbLine
 10
-17.57936086780392
 20
8.496942788740698
 11
-15.43557077031104
 21
0.6866794787088608
  0
LINE
  5
DF
100
AcDbEntity
  8
AngleBlock
  6
ByLayer
 62
  256
370
   -3
100
AcDbLine
 10
-6.042470357069405
 20
29.07384389603473
 11
-17.48105370196735
 21
9.261636376060348
  0
ARC
  5
E0
100
AcDbEntity
  8
AngleBlock
  6
ByLayer
 62
  256
370
   -3
100
AcDbCircle
 10
-16.61502829818291
 20
8.761636376060348
 40
1
100
AcDbArc
 50
150
 51
195.3487465068383
  0
LINE
  5
E1
100
AcDbEntity
  8
AngleBlock
  6
ByLayer
 62
  256
370
   -3
100
AcDbLine
 10
2.220446049250313e-16
 20
-2.936217003839895
 11
1.734723475976807e-18
 21
21.57
  0
ARC
  5
E2
100
AcDbEntity
  8
HolderProfile
  6
ByLayer
 62
  256
370
   -3
100
AcDbCircle
 10
-18.77771365474946
 20
-59.38910262700224
 40
59.49395620801842
100
AcDbArc
 50
55.21959341139421
 51
71.60151867472042
  0
LINE
  5
E3
100
AcDbEntity
  8
HolderProfile
  6
ByLayer
 62
  256
370
   -3
100
AcDbLine
 10
1.734723475976807e-18
 20
21.57
 11
2.220446049250313e-16
 21
-2.936217003839895
  0
ENDSEC
  0
SECTION
  2
OBJECTS
  0
DICTIONARY
  5
C
330
0
100
AcDbDictionary
281
    1
  3
ACAD_GROUP
350
D
  0
DICTIONARY
  5
D
330
C
100
AcDbDictionary
281
    1
  0
ENDSEC
  0
EOF
